&GLOBAL
 PROJECT Perovskite_SSC
 RUN_TYPE ENERGY
 PRINT_LEVEL MEDIUM
&END GLOBAL

&FORCE_EVAL
 METHOD QS
 &DFT
   CHARGE 0
   MULTIPLICITY 1
  BASIS_SET_FILE_NAME  BASIS_MOLOPT_UCL
  POTENTIAL_FILE_NAME  POTENTIAL

  &POISSON
   PERIODIC XYZ
  &END POISSON
  
  &QS
   EXTRAPOLATION USE_GUESS
  &END QS

  &SCF
         SCF_GUESS ATOMIC
         EPS_SCF 1.0E-6
         MAX_SCF 300

         ADDED_MOS 10
         &DIAGONALIZATION
            ALGORITHM STANDARD
            EPS_ADAPT 0.01
         &END DIAGONALIZATION
         &SMEAR  ON
            METHOD FERMI_DIRAC
            ELECTRONIC_TEMPERATURE [K] 0
         &END SMEAR

         &MIXING
            METHOD BROYDEN_MIXING
            ALPHA 0.2
            BETA 1.5
            NBROYDEN 8
         &END MIXING

  &END SCF

  &XC
   &XC_FUNCTIONAL BLYP
   &END XC_FUNCTIONAL
  &END XC
    
  &KPOINTS
         SCHEME GAMMA 20 20 20
         SYMMETRY OFF
         WAVEFUNCTIONS REAL
         FULL_GRID .TRUE.
         PARALLEL_GROUP_SIZE  0
      &END KPOINTS
  &PRINT
  &BAND_STRUCTURE
   ADDED_MOS 10
   FILE_NAME CsPbBr3_G5_2.bs
   &KPOINT_SET
   SPECIAL_POINT 1 0.0 0.0 0.0
   SPECIAL_POINT 1 0.0 0.5 0.0
   SPECIAL_POINT 1 0.5 0.5 0.0
   SPECIAL_POINT 1 0.5 0.0 0.0
   SPECIAL_POINT 1 0.5 0.0 0.5
   SPECIAL_POINT 1 0.0 0.0 0.5
   SPECIAL_POINT 1 0.0 0.5 0.5
   SPECIAL_POINT 1 0.5 0.5 0.5 
   NPOINTS 20
   &END
   &END BAND_STRUCTURE
   &END PRINT
 &END DFT

 &SUBSYS
  &COORD
    SCALED
Cs     0.057300001         0.021000000         0.800000012
Cs     0.542699993         0.521000028         0.800000012
Cs     0.042700000         0.078999996         0.300000012
Cs     0.557299972         0.578999996         0.300000012
Pb     0.550000012         0.050000001         0.550000012
Pb     0.050000001         0.549999952         0.050000001
Pb     0.550000012         0.050000001         0.050000001
Pb     0.050000001         0.549999952         0.550000012
Br     0.003599999         0.555000007         0.800000012
Br     0.596400023         0.055000000         0.800000012
Br     0.096400000         0.544999957         0.300000012
Br     0.503600001         0.044999998         0.300000012
Br     0.257100016         0.256999999         0.575100005
Br     0.342900008         0.756999969         0.024900002
Br     0.842899978         0.842999995         0.075099997
Br     0.757099986         0.342999995         0.524900019
Br     0.842899978         0.842999995         0.524900019
Br     0.757099986         0.342999995         0.075099997
Br     0.257100016         0.256999999         0.024900002
Br     0.342900008         0.756999969         0.575100005
  &END COORD

   &KIND Br
    BASIS_SET TZV2P-MOLOPT-SR-GTH
    POTENTIAL GTH-PBE
   &END KIND

   &KIND Cs
    BASIS_SET TZV2P-MOLOPT-SR-GTH
    POTENTIAL GTH-PBE
   &END KIND

   &KIND Pb
    BASIS_SET TZV2P-MOLOPT-SR-GTH
    POTENTIAL GTH-PBE
   &END KIND

  &CELL
    ABC 8.1915397644 8.2445898056 11.7399301529
    ALPHA_BETA_GAMMA    90.00000       90.00000       90.00000      
    SYMMETRY ORTHORHOMBIC
    PERIODIC XYZ
    MULTIPLE_UNIT_CELL 1 1 1 
  &END CELL
 &END SUBSYS
&END FORCE_EVAL
