Voltage,V 	 Current,A
-0.99999200000000	-0.00048703000000
-0.95918100000000	-0.00022890000000
-0.91837100000000	-0.00010400300000
-0.87755000000000	-0.00005643800000
-0.83672600000000	-0.00003518510000
-0.79591600000000	-0.00002553860000
-0.75509700000000	-0.00002032690000
-0.71429200000000	-0.00001767900000
-0.67346600000000	-0.00001555450000
-0.63264900000000	-0.00001347960000
-0.59184200000000	-0.00001232040000
-0.55102300000000	-0.00001110760000
-0.51019900000000	-0.00001001460000
-0.46939300000000	-0.00000909760000
-0.42857300000000	-0.00000815280000
-0.38775600000000	-0.00000733680000
-0.34693700000000	-0.00000649090000
-0.30612200000000	-0.00000559930000
-0.26531300000000	-0.00000475476000
-0.22449000000000	-0.00000402304000
-0.18366900000000	-0.00000336010000
-0.14286100000000	-0.00000259224000
-0.10204100000000	-0.00000184453000
-0.06122000000000	-0.00000108411000
-0.02041100000000	-0.00000036353000
0.02041300000000	0.00000037417300
0.06122100000000	0.00000115354000
0.10203900000000	0.00000191752000
0.14286000000000	0.00000273477000
0.18366800000000	0.00000374736000
0.22449100000000	0.00000477634000
0.26530900000000	0.00000593792000
0.30611800000000	0.00000718453000
0.34693900000000	0.00000872200000
0.38775800000000	0.00001007130000
0.42857200000000	0.00001105810000
0.46939100000000	0.00001217050000
0.51020500000000	0.00001426270000
0.55101900000000	0.00001308290000
0.59183200000000	0.00001470350000
0.63265100000000	0.00001741710000
0.67327900000000	0.00321370000000
0.71429100000000	0.00000000797700
0.75510400000000	0.00000001160100
0.79592300000000	0.00000001247700
0.83673300000000	0.00000001199900
0.87755100000000	0.00000001323100
0.91837300000000	0.00000001573300
0.95918100000000	0.00000001919600
1.00000400000000	0.00000002376300
1.00000200000000	0.00000001724600
0.95917700000000	0.00000000830900
0.91836800000000	0.00000000525100
0.87754800000000	0.00000000264900
0.83672800000000	0.00000000092500
0.79591800000000	-0.00000000044800
0.75509600000000	-0.00000000168800
0.71429000000000	0.00000000176300
0.67346800000000	-0.00000000422700
0.63264600000000	-0.00000000429800
0.59183900000000	-0.00000000263700
0.55101800000000	-0.00000000736600
0.51019900000000	-0.00000000304700
0.46938800000000	-0.00000000627800
0.42856900000000	-0.00000000358100
0.38775800000000	-0.00000000570000
0.34693800000000	-0.00000000170400
0.30611700000000	-0.00000000836600
0.26530800000000	-0.00000000574900
0.22448800000000	-0.00000000554100
0.18366700000000	-0.00000000637600
0.14286000000000	-0.00000000142400
0.10203800000000	-0.00000000738600
0.06121300000000	-0.00000000878200
0.02041000000000	-0.00000000196200
-0.02041300000000	-0.00000000753600
-0.06122100000000	-0.00000000520900
-0.10204600000000	-0.00000000975700
-0.14286000000000	-0.00000000203000
-0.18367200000000	-0.00000000758400
-0.22449200000000	-0.00000000321000
-0.26531500000000	-0.00000001210500
-0.30612400000000	-0.00000001093200
-0.34694300000000	-0.00000001258000
-0.38776400000000	-0.00000001913900
-0.42856800000000	-0.00008625500000
-0.46939000000000	-0.00011386700000
-0.51020000000000	-0.00011335000000
-0.55102000000000	-0.00012579000000
-0.59184000000000	-0.00013924900000
-0.63265000000000	-0.00014717500000
-0.67347200000000	-0.00015489600000
-0.71429100000000	-0.00019313700000
-0.75510000000000	-0.00020000400000
-0.79591900000000	-0.00022809900000
-0.83673100000000	-0.00024431900000
-0.87755000000000	-0.00027017600000
-0.91837200000000	-0.00032887100000
-0.95918200000000	-0.00040527200000
-1.00000000000000	-0.00055533500000
