Voltage,V 	 Current,A
-0.99999600000000	-0.00016213000000
-0.95918100000000	-0.00010029700000
-0.91837100000000	-0.00004898200000
-0.87753800000000	-0.00002348430000
-0.83672000000000	-0.00001114940000
-0.79591600000000	-0.00000547218000
-0.75509600000000	-0.00000260221000
-0.71428500000000	-0.00000129330000
-0.67346700000000	-0.00000063515000
-0.63264800000000	-0.00000031477000
-0.59183500000000	-0.00000018255400
-0.55100100000000	-0.00000005993300
-0.51018300000000	-0.00000001615200
-0.46937100000000	0.00000002993400
-0.42855400000000	0.00000003744000
-0.38774700000000	0.00000003395000
-0.34692500000000	0.00000004790300
-0.30610800000000	0.00000004408600
-0.26529600000000	0.00000004608600
-0.22447700000000	0.00000004521700
-0.18365700000000	0.00000004724400
-0.14284000000000	0.00000006588200
-0.10203000000000	0.00000004962400
-0.06121100000000	0.00000005456900
-0.02040400000000	0.00000005131100
0.02042300000000	0.00000006232200
0.06123000000000	0.00000005583100
0.10205400000000	0.00000006041800
0.14287500000000	0.00000006023200
0.18367400000000	0.00000002893100
0.22450400000000	0.00000007313500
0.26532100000000	0.00000005812200
0.30612500000000	0.00000002793700
0.34694800000000	0.00000005999400
0.38777500000000	0.00000007881000
0.42858500000000	0.00000007559900
0.46940400000000	0.00000008426100
0.51020900000000	0.00000007413800
0.55103000000000	0.00000008546200
0.59185600000000	0.00000009665500
0.63266000000000	0.00000009603900
0.67348000000000	0.00000010090300
0.71430200000000	0.00000010989600
0.75511300000000	0.00000011880700
0.79593000000000	0.00000011589200
0.83674000000000	0.00000012851000
0.87755700000000	0.00000013364600
0.91837600000000	0.00000015301500
0.95918600000000	0.00000015955800
1.00001100000000	0.00000018116000
1.00000400000000	0.00000015278900
0.95917300000000	0.00000009120700
0.91836700000000	0.00000010081900
0.87754100000000	0.00000005114300
0.83673500000000	0.00000007196700
0.79591000000000	0.00000002861800
0.75509100000000	0.00000002121600
0.71428200000000	0.00000001580000
0.67346700000000	0.00000001805800
0.63264500000000	0.00000000314600
0.59183200000000	-0.00000000188100
0.55100900000000	-0.00000001613800
0.51019000000000	-0.00000001288800
0.46937800000000	-0.00000002390600
0.42856100000000	-0.00000002252500
0.38775900000000	-0.00000001794900
0.34693800000000	-0.00000002409100
0.30611800000000	-0.00000002845400
0.26530900000000	-0.00000002927600
0.22448300000000	-0.00000003012200
0.18366100000000	-0.00000004804800
0.14285500000000	-0.00000003555000
0.10203600000000	-0.00000004585800
0.06121500000000	-0.00000003914800
0.02040300000000	-0.00000004027000
-0.02041300000000	-0.00000004163700
-0.06122600000000	-0.00000005204600
-0.10204900000000	-0.00000005909100
-0.14286700000000	-0.00000006246600
-0.18368500000000	-0.00000007259500
-0.22449700000000	-0.00000006364500
-0.26532100000000	-0.00000007015500
-0.30612800000000	-0.00000007901300
-0.34695700000000	-0.00000009670300
-0.38776300000000	-0.00000008792800
-0.42858200000000	-0.00000011807000
-0.46940200000000	-0.00000014539300
-0.51021000000000	-0.00000019110500
-0.55103700000000	-0.00000027002800
-0.59185200000000	-0.00000040316000
-0.63266200000000	-0.00000066268100
-0.67346900000000	-0.00000115782000
-0.71429200000000	-0.00000221224000
-0.75510100000000	-0.00000430040000
-0.79591900000000	-0.00000848308000
-0.83672800000000	-0.00001631820000
-0.87754700000000	-0.00003039400000
-0.91835200000000	-0.00005420270000
-0.95914900000000	-0.00009325460000
-1.00000000000000	-0.00015565800000
