Model,MSO44,
Firmware Version,CF:91.1CT FV:1.30.1.8359,
,,
Waveform Type,ANALOG,ANALOG
Point Format,Y,Y
Horizontal Units,"s","s"
Horizontal Scale,4E-05,4E-05
Horizontal Delay,0,0
Sample Interval,4E-07,4E-07
Record Length,1000,1000
Gating,0.0% to 100.0%,0.0% to 100.0%
Probe Attenuation,1X,10X
Vertical Units,"V","V"
Vertical Offset,0,0
Vertical Scale,0.002,2
Vertical Position,0.24,1.84
,,
,,
,,
Label,"",""
TIME,CH1,CH2
-6.36E-05,0.001573438,-4.987813
-6.32E-05,0.001314688,-4.985938
-6.28E-05,0.001375937,-4.969375
-6.24E-05,0.001506875,-4.971562
-6.2E-05,0.001334063,-4.969375
-6.16E-05,0.001500312,-4.984063
-6.12E-05,0.00138,-4.970625
-6.08E-05,0.00131,-4.97875
-6.04E-05,0.001501875,-4.995625
-6E-05,0.001561563,-4.98625
-5.96E-05,0.001637812,-4.977188
-5.92E-05,0.001484063,-4.977188
-5.88E-05,0.0014475,-4.965
-5.84E-05,0.001206875,-4.990313
-5.8E-05,0.00120875,-4.974688
-5.76E-05,0.001398437,-4.966875
-5.72E-05,0.001313437,-4.981875
-5.68E-05,0.001423125,-4.9725
-5.64E-05,0.00147625,-4.98375
-5.6E-05,0.001280625,-4.980937
-5.56E-05,0.001316875,-4.993438
-5.52E-05,0.001648125,-4.966562
-5.48E-05,0.001332812,-4.975313
-5.44E-05,0.001512188,-4.971562
-5.4E-05,0.0011275,-4.9825
-5.36E-05,0.001518125,-4.9825
-5.32E-05,0.00142125,-4.983125
-5.28E-05,0.001259687,-4.982812
-5.24E-05,0.001477812,-4.984063
-5.2E-05,0.001724062,-4.990313
-5.16E-05,0.00126875,-4.979063
-5.12E-05,0.001516875,-4.971875
-5.08E-05,0.001588437,-4.981563
-5.04E-05,0.001120625,-4.976875
-5E-05,0.001061875,-4.989375
-4.96E-05,0.00217125,2.269062
-4.92E-05,0.003104375,2.775937
-4.88E-05,0.003437812,2.784062
-4.84E-05,0.003723437,2.77625
-4.8E-05,0.003729688,2.7775
-4.76E-05,0.004523125,2.78
-4.72E-05,0.004179375,2.774062
-4.68E-05,0.004194688,2.785312
-4.64E-05,0.004170625,2.767187
-4.6E-05,0.004403437,2.77375
-4.56E-05,0.004230625,2.782812
-4.52E-05,0.004267187,2.76875
-4.48E-05,0.004581875,2.78375
-4.44E-05,0.00467,2.791875
-4.4E-05,0.004667188,2.79625
-4.36E-05,0.004692812,2.79625
-4.32E-05,0.004588125,2.799375
-4.28E-05,0.00456125,2.789375
-4.24E-05,0.00462625,2.799375
-4.2E-05,0.004650625,2.790625
-4.16E-05,0.004485625,2.8
-4.12E-05,0.00497875,2.79
-4.08E-05,0.00462125,2.790937
-4.04E-05,0.004799687,2.805625
-4E-05,0.004551875,2.796562
-3.96E-05,0.004825313,2.814062
-3.92E-05,0.004786875,2.785937
-3.88E-05,0.0046425,2.795312
-3.84E-05,0.00508,2.8175
-3.8E-05,0.0046875,2.799375
-3.76E-05,0.004993437,2.799062
-3.72E-05,0.005140625,2.796875
-3.68E-05,0.0050225,2.812812
-3.64E-05,0.005017812,2.80125
-3.6E-05,0.005211562,2.8025
-3.56E-05,0.004931563,2.803437
-3.52E-05,0.004942188,2.816875
-3.48E-05,0.005307812,2.80125
-3.44E-05,0.005151875,2.799062
-3.4E-05,0.00499625,2.8075
-3.36E-05,0.0052575,2.811562
-3.32E-05,0.005235625,2.795625
-3.28E-05,0.00557,2.812812
-3.24E-05,0.005413125,2.8075
-3.2E-05,0.005418438,2.809375
-3.16E-05,0.004959062,2.819687
-3.12E-05,0.005617187,2.810625
-3.08E-05,0.005399687,2.814687
-3.04E-05,0.004992812,2.821562
-3E-05,0.00544625,2.81
-2.96E-05,0.005054375,2.81875
-2.92E-05,0.00523,2.815937
-2.88E-05,0.005324375,2.824062
-2.84E-05,0.00507,2.817812
-2.8E-05,0.00538625,2.810625
-2.76E-05,0.00512875,2.81
-2.72E-05,0.005334063,2.806562
-2.68E-05,0.005306875,2.819375
-2.64E-05,0.005331562,2.8075
-2.6E-05,0.005587188,2.816562
-2.56E-05,0.005401562,2.826875
-2.52E-05,0.005412187,2.8
-2.48E-05,0.005467813,2.805
-2.44E-05,0.00566375,2.813437
-2.4E-05,0.005521562,2.823437
-2.36E-05,0.005286562,2.815
-2.32E-05,0.005803125,2.815
-2.28E-05,0.005473437,2.822812
-2.24E-05,0.005725937,2.825312
-2.2E-05,0.0055475,2.809375
-2.16E-05,0.005473125,2.807187
-2.12E-05,0.005865312,2.825312
-2.08E-05,0.005644063,2.814687
-2.04E-05,0.005729687,2.819375
-2E-05,0.005734375,2.800937
-1.96E-05,0.005805938,2.82375
-1.92E-05,0.005485,2.8225
-1.88E-05,0.005569062,2.818437
-1.84E-05,0.005674687,2.812812
-1.8E-05,0.005513125,2.81625
-1.76E-05,0.005813438,2.825
-1.72E-05,0.005639062,2.80875
-1.68E-05,0.005495938,2.820625
-1.64E-05,0.0055025,2.82375
-1.6E-05,0.00553875,2.825312
-1.56E-05,0.005315938,2.8225
-1.52E-05,0.005691875,2.81875
-1.48E-05,0.0054725,2.834375
-1.44E-05,0.005889687,2.80875
-1.4E-05,0.005818437,2.813125
-1.36E-05,0.005384687,2.813125
-1.32E-05,0.005809375,2.809375
-1.28E-05,0.005788438,2.8125
-1.24E-05,0.005836562,2.819062
-1.2E-05,0.00566125,2.815937
-1.16E-05,0.005669687,2.835937
-1.12E-05,0.005591562,2.808437
-1.08E-05,0.005718437,2.812187
-1.04E-05,0.005801562,2.808437
-1E-05,0.005851563,2.824062
-9.6E-06,0.00618,2.810937
-9.20000000000001E-06,0.006035,2.8125
-8.8E-06,0.005606562,2.818437
-8.4E-06,0.005744375,2.80875
-8E-06,0.0059175,2.82875
-7.6E-06,0.006094375,2.816562
-7.20000000000001E-06,0.006053437,2.8075
-6.8E-06,0.005766875,2.814687
-6.40000000000001E-06,0.005864687,2.821562
-6E-06,0.006079375,2.813437
-5.6E-06,0.005740625,2.825
-5.2E-06,0.005933437,2.817812
-4.8E-06,0.005971563,2.812812
-4.40000000000001E-06,0.005797812,2.82375
-4E-06,0.005826563,2.811875
-3.60000000000001E-06,0.005866562,2.82125
-3.2E-06,0.005852188,2.817187
-2.8E-06,0.006286562,2.82375
-2.4E-06,0.005625938,2.81375
-2.00000000000001E-06,0.00571,2.817812
-1.6E-06,0.00600625,2.811562
-1.2E-06,0.005610937,2.82
-8.00000000000006E-07,0.00601875,2.80875
-4.0000000000001E-07,0.006189062,2.825625
0,0.005885937,2.823125
3.99999999999996E-07,0.005063437,-3.815938
7.99999999999992E-07,0.004567187,-4.91875
1.2E-06,0.004610625,-4.94375
1.6E-06,0.004160937,-4.93125
1.99999999999999E-06,0.004154687,-4.953125
2.39999999999999E-06,0.004254375,-4.949062
2.8E-06,0.00400625,-4.942187
3.2E-06,0.004012812,-4.94375
3.59999999999999E-06,0.003925,-4.945625
4E-06,0.004125625,-4.933437
4.4E-06,0.004613437,-4.953438
4.79999999999999E-06,0.004145,-4.959063
5.19999999999999E-06,0.004095313,-4.954688
5.6E-06,0.00392125,-4.955
6E-06,0.00421625,-4.96875
6.39999999999999E-06,0.004041562,-4.963125
6.8E-06,0.003897187,-4.962188
7.2E-06,0.003919688,-4.957812
7.59999999999999E-06,0.00382125,-4.965938
7.99999999999999E-06,0.003920313,-4.96125
8.4E-06,0.003749375,-4.959375
8.8E-06,0.003855312,-4.971875
9.19999999999999E-06,0.004273437,-4.960625
9.59999999999999E-06,0.003859688,-4.955
1E-05,0.00399125,-4.971875
1.04E-05,0.003835313,-4.974062
1.08E-05,0.003736875,-4.969687
1.12E-05,0.004017813,-4.967187
1.16E-05,0.003907187,-4.979063
1.2E-05,0.00397375,-4.970313
1.24E-05,0.00393875,-4.972813
1.28E-05,0.003750313,-4.974375
1.32E-05,0.003545,-4.963125
1.36E-05,0.003806875,-4.973125
1.4E-05,0.004053125,-4.9775
1.44E-05,0.003901875,-4.962812
1.48E-05,0.00374375,-4.974688
1.52E-05,0.003954688,-4.979063
1.56E-05,0.003808437,-4.975625
1.6E-05,0.004277812,-4.978437
1.64E-05,0.00341125,-4.982812
1.68E-05,0.004129375,-4.97375
1.72E-05,0.00346125,-4.969687
1.76E-05,0.003820625,-4.98625
1.8E-05,0.003735312,-4.975625
1.84E-05,0.003733125,-4.975625
1.88E-05,0.003703125,-4.969063
1.92E-05,0.003648125,-4.969375
1.96E-05,0.003666875,-4.972188
2E-05,0.003801562,-4.975313
2.04E-05,0.003668437,-4.975625
2.08E-05,0.00343,-4.963125
2.12E-05,0.004071563,-4.995313
2.16E-05,0.0035625,-4.982812
2.2E-05,0.003402187,-4.985938
2.24E-05,0.003500625,-4.975937
2.28E-05,0.003642187,-4.97125
2.32E-05,0.003663437,-4.97875
2.36E-05,0.003272813,-4.966562
2.4E-05,0.00332125,-4.98625
2.44E-05,0.003515625,-4.97875
2.48E-05,0.00378125,-4.977813
2.52E-05,0.003310937,-4.981875
2.56E-05,0.003288125,-4.97625
2.6E-05,0.003392813,-4.98625
2.64E-05,0.003334062,-4.983438
2.68E-05,0.003642187,-4.9775
2.72E-05,0.003774688,-4.979688
2.76E-05,0.003639062,-4.97125
2.8E-05,0.00365625,-4.986563
2.84E-05,0.003509687,-4.984063
2.88E-05,0.003572187,-4.96875
2.92E-05,0.003583125,-4.985625
2.96E-05,0.003551875,-4.99
3E-05,0.003656562,-4.976563
3.04E-05,0.003414375,-4.974688
3.08E-05,0.003325312,-4.992188
3.12E-05,0.003365312,-4.989687
3.16E-05,0.003221562,-4.995937
3.2E-05,0.00368875,-4.965
3.24E-05,0.003368125,-4.990313
3.28E-05,0.003000937,-4.98625
3.32E-05,0.003758125,-4.98375
3.36E-05,0.003439375,-4.974062
3.4E-05,0.003511562,-4.981563
3.44E-05,0.00364625,-4.988438
3.48E-05,0.003169063,-4.97875
3.52E-05,0.003454688,-4.98375
3.56E-05,0.003369687,-4.996875
3.6E-05,0.00367125,-4.979375
3.64E-05,0.003375937,-4.976875
3.68E-05,0.003664375,-4.979063
3.72E-05,0.003496563,-4.98
3.76E-05,0.003312812,-4.964687
3.8E-05,0.003305,-4.98
3.84E-05,0.003313438,-4.995625
3.88E-05,0.003333125,-4.992813
3.92E-05,0.003745937,-4.974688
3.96E-05,0.003335625,-4.98625
4E-05,0.0032875,-4.99125
4.04E-05,0.003244375,-4.983125
4.08E-05,0.00334125,-4.978437
4.12E-05,0.003501562,-4.979063
4.16E-05,0.003374062,-4.969687
4.2E-05,0.003249687,-4.991562
4.24E-05,0.003114063,-4.987813
4.28E-05,0.003229063,-4.980312
4.32E-05,0.003303437,-4.978125
4.36E-05,0.003387813,-4.980937
4.4E-05,0.003504687,-4.977188
4.44E-05,0.003251875,-4.975937
4.48E-05,0.003150312,-4.979063
4.52E-05,0.003545625,-4.977813
4.56E-05,0.003534062,-4.98375
4.6E-05,0.003181875,-4.9775
4.64E-05,0.003318437,-4.98
4.68E-05,0.003395937,-4.978437
4.72E-05,0.00317125,-4.9825
4.76E-05,0.003140625,-4.98375
4.8E-05,0.003155313,-4.970313
4.84E-05,0.003046562,-4.994062
4.88E-05,0.003431875,-4.987187
4.92E-05,0.003609375,-4.985625
4.96E-05,0.003360625,-4.980937
5E-05,0.00344875,-4.975313
5.04E-05,0.003437812,-4.977813
5.08E-05,0.003049063,-4.987187
5.12E-05,0.003195937,-4.97875
5.16E-05,0.003263125,-4.97625
5.2E-05,0.003001875,-4.991562
5.24E-05,0.003087813,-4.981563
5.28E-05,0.0032325,-4.979063
5.32E-05,0.003237813,-4.99125
5.36E-05,0.003204375,-4.966875
5.4E-05,0.003190313,-4.98
5.44E-05,0.0032725,-4.98
5.48E-05,0.003036563,-4.974688
5.52E-05,0.003075938,-4.97125
5.56E-05,0.003244062,-4.9775
5.6E-05,0.003237813,-4.970625
5.64E-05,0.00320375,-4.974688
5.68E-05,0.00300625,-4.993125
5.72E-05,0.002986875,-4.985
5.76E-05,0.0031525,-4.980937
5.8E-05,0.002860938,-4.987187
5.84E-05,0.002795937,-4.990938
5.88E-05,0.002723438,-4.986563
5.92E-05,0.00303375,-4.978125
5.96E-05,0.003273125,-4.982812
6E-05,0.002977812,-4.981875
6.04E-05,0.002958125,-4.989687
6.08E-05,0.003168437,-4.975313
6.12E-05,0.002840312,-4.979063
6.16E-05,0.003343125,-4.976563
6.2E-05,0.00308375,-4.986563
6.24E-05,0.00284,-4.972813
6.28E-05,0.00304375,-5.001563
6.32E-05,0.003187187,-4.985625
6.36E-05,0.003156563,-4.974375
6.4E-05,0.002777187,-4.985938
6.44E-05,0.002906875,-4.981563
6.48E-05,0.002985312,-4.97625
6.52E-05,0.003168125,-4.989375
6.56E-05,0.003171875,-5.000625
6.6E-05,0.00297375,-4.977188
6.64E-05,0.003065,-4.9825
6.68E-05,0.003014063,-4.979375
6.72E-05,0.003064688,-4.97125
6.76E-05,0.0031275,-4.978125
6.8E-05,0.003121875,-4.9925
6.84E-05,0.002954375,-4.988125
6.88E-05,0.002817187,-4.982187
6.92E-05,0.002823438,-4.98875
6.96E-05,0.002987188,-4.976875
7E-05,0.00284125,-4.978437
7.04E-05,0.002615,-4.98625
7.08E-05,0.003196562,-4.995313
7.12E-05,0.00246125,-4.978125
7.16E-05,0.003222188,-4.972813
7.2E-05,0.002813437,-4.964375
7.24E-05,0.002929063,-4.992188
7.28E-05,0.002913125,-4.97875
7.32E-05,0.00296875,-4.985312
7.36E-05,0.002765625,-4.974688
7.4E-05,0.002845625,-4.981875
7.44E-05,0.00321625,-4.9825
7.48E-05,0.002929375,-4.989375
7.52E-05,0.002866875,-4.970313
7.56E-05,0.002890625,-4.983438
7.6E-05,0.003168437,-4.975313
7.64E-05,0.002945625,-4.969687
7.68E-05,0.002432812,-4.981875
7.72E-05,0.00299,-4.978437
7.76E-05,0.002944375,-4.978437
7.8E-05,0.002760313,-4.975
7.84E-05,0.00314125,-4.980625
7.88E-05,0.003050625,-4.979688
7.92E-05,0.002642812,-4.985625
7.96E-05,0.002867813,-4.979375
8E-05,0.002842813,-4.978125
8.04E-05,0.002750312,-4.98375
8.08E-05,0.002891875,-4.977188
8.12E-05,0.0029325,-4.97875
8.16E-05,0.00260375,-4.978437
8.2E-05,0.003032187,-4.988125
8.24E-05,0.003015938,-4.9875
8.28E-05,0.002449375,-4.968438
8.32E-05,0.002815625,-4.981875
8.36E-05,0.0022675,-4.98125
8.4E-05,0.003095625,-4.992813
8.44E-05,0.002832812,-4.98375
8.48E-05,0.002726875,-4.98125
8.52E-05,0.003015,-4.980625
8.56E-05,0.003100313,-4.979063
8.6E-05,0.003255625,-4.974062
8.64E-05,0.00326875,-4.971562
8.68E-05,0.00258125,-4.98875
8.72E-05,0.002590312,-4.980937
8.76E-05,0.002847187,-4.98375
8.8E-05,0.002643125,-4.971875
8.84E-05,0.0024275,-4.98125
8.88E-05,0.002939375,-4.98125
8.92E-05,0.0028375,-4.984063
8.96E-05,0.002838437,-4.975313
9E-05,0.002511563,-4.97875
9.04E-05,0.002549687,-4.982812
9.08E-05,0.002632813,-4.964375
9.12E-05,0.002565625,-4.993125
9.16E-05,0.002862188,-4.985
9.2E-05,0.002619375,-4.992188
9.24E-05,0.002496562,-4.972188
9.28E-05,0.002576563,-4.9675
9.32E-05,0.0025675,-4.973125
9.36E-05,0.002755625,-4.985312
9.4E-05,0.002406562,-4.992813
9.44E-05,0.002672812,-4.982187
9.48E-05,0.002748125,-4.986563
9.52E-05,0.0027125,-4.97875
9.56E-05,0.002432188,-4.9825
9.6E-05,0.002766875,-4.969687
9.64E-05,0.002628437,-4.984688
9.68E-05,0.00266375,-4.976875
9.72E-05,0.002664688,-4.97
9.76E-05,0.00275125,-4.976875
9.8E-05,0.002815312,-4.9875
9.84E-05,0.00245125,-4.995313
9.88E-05,0.002957813,-4.978437
9.92E-05,0.0025025,-4.979688
9.96E-05,0.002704687,-4.980625
0.0001,0.002475312,-4.979688
0.0001004,0.002721875,-4.973125
0.0001008,0.002781875,-4.980312
0.0001012,0.00295375,-4.97125
0.0001016,0.002652188,-4.990938
0.000102,0.002493437,-4.985
0.0001024,0.002700313,-4.982812
0.0001028,0.002529063,-4.996562
0.0001032,0.0024225,-4.9675
0.0001036,0.0024125,-4.969063
0.000104,0.002333438,-4.979375
0.0001044,0.002623125,-4.9825
0.0001048,0.002661875,-4.982812
0.0001052,0.002629688,-4.99625
0.0001056,0.002494687,-4.967813
0.000106,0.0026225,-4.990938
0.0001064,0.002215625,-4.975937
0.0001068,0.002645,-4.979063
0.0001072,0.002603125,-4.986563
0.0001076,0.002459062,-4.966875
0.000108,0.0026475,-4.974062
0.0001084,0.002501875,-4.983438
0.0001088,0.002815937,-4.985
0.0001092,0.002490625,-4.9825
0.0001096,0.002257813,-4.977813
0.00011,0.002591562,-4.985938
0.0001104,0.002495625,-4.984375
0.0001108,0.002405625,-4.99125
0.0001112,0.002597187,-4.992813
0.0001116,0.002713437,-4.979375
0.000112,0.002446563,-4.967813
0.0001124,0.002539375,-4.995
0.0001128,0.0023925,-4.982187
0.0001132,0.00241625,-4.974375
0.0001136,0.002828438,-4.986563
0.000114,0.002885313,-4.97875
0.0001144,0.0025425,-4.974062
0.0001148,0.002715,-4.988438
0.0001152,0.00267625,-4.967187
0.0001156,0.002397188,-4.98125
0.000116,0.002254375,-4.984688
0.0001164,0.002470938,-4.991562
0.0001168,0.002649687,-4.983438
0.0001172,0.002466562,-4.982812
0.0001176,0.002277812,-4.981875
0.000118,0.002316875,-4.987813
0.0001184,0.002503125,-4.978125
0.0001188,0.002559687,-4.973125
0.0001192,0.002705313,-4.988438
0.0001196,0.002471875,-4.986563
0.00012,0.00248625,-4.985938
0.0001204,0.002433437,-4.975
0.0001208,0.002220625,-4.975
0.0001212,0.002539062,-4.986563
0.0001216,0.00257875,-4.975
0.000122,0.002510937,-4.994375
0.0001224,0.002149688,-4.974062
0.0001228,0.002582188,-4.975937
0.0001232,0.00234375,-4.982812
0.0001236,0.002460313,-4.980937
0.000124,0.002543438,-4.985625
0.0001244,0.002594375,-4.982812
0.0001248,0.002561562,-4.974375
0.0001252,0.002296875,-4.993125
0.0001256,0.002514375,-4.992813
0.000126,0.002149375,-4.983438
0.0001264,0.00219,-4.975937
0.0001268,0.002649063,-4.987813
0.0001272,0.002335937,-4.979375
0.0001276,0.002768437,-4.981875
0.000128,0.002539375,-4.965938
0.0001284,0.002470312,-4.974062
0.0001288,0.00271875,-4.982812
0.0001292,0.002563437,-4.969375
0.0001296,0.002497188,-4.960938
0.00013,0.0027375,-4.983125
0.0001304,0.002044688,-4.976563
0.0001308,0.00242625,-4.9825
0.0001312,0.0022475,-4.989375
0.0001316,0.002643125,-4.980625
0.000132,0.002051875,-4.985625
0.0001324,0.002056563,-4.974062
0.0001328,0.002257187,-4.965
0.0001332,0.00226875,-4.994688
0.0001336,0.002548438,-4.98
0.000134,0.002461875,-4.974062
0.0001344,0.002522188,-4.981563
0.0001348,0.002404375,-4.977188
0.0001352,0.0021225,-4.977188
0.0001356,0.002393125,-4.9825
0.000136,0.002130938,-4.965
0.0001364,0.00245625,-4.970938
0.0001368,0.0024875,-4.985938
0.0001372,0.002200625,-4.975625
0.0001376,0.002473125,-4.98125
0.000138,0.00234625,-4.975313
0.0001384,0.002420625,-4.975937
0.0001388,0.002126562,-4.972813
0.0001392,0.002441875,-4.9875
0.0001396,0.002259063,-4.983125
0.00014,0.002025625,-4.994688
0.0001404,0.002374063,-4.981875
0.0001408,0.00213375,-4.969375
0.0001412,0.002416563,-4.9825
0.0001416,0.002274375,-4.965
0.000142,0.002519687,-4.978125
0.0001424,0.002427188,-4.991875
0.0001428,0.002050312,-4.98375
0.0001432,0.00204375,-4.969063
0.0001436,0.002119062,-4.969375
0.000144,0.002376875,-4.9675
0.0001444,0.001890625,-4.975313
0.0001448,0.002204375,-4.965
0.0001452,0.001911562,-4.985
0.0001456,0.002689688,-4.984688
0.000146,0.002310625,-4.976875
0.0001464,0.002275313,-4.979063
0.0001468,0.002090625,-4.978125
0.0001472,0.002413437,-4.974688
0.0001476,0.002356563,-4.982187
0.000148,0.002046562,-4.97125
0.0001484,0.002683437,-4.9725
0.0001488,0.002171875,-4.966875
0.0001492,0.002041875,-4.9825
0.0001496,0.002269062,-4.986563
0.00015,0.002438125,-4.995937
0.0001504,0.002264062,-4.978125
0.0001508,0.001867187,-4.985938
0.0001512,0.002161562,-4.980625
0.0001516,0.002204375,-4.978125
0.000152,0.002203125,-4.981563
0.0001524,0.002045312,-4.992813
0.0001528,0.002022813,-4.967187
0.0001532,0.00227875,-4.97125
0.0001536,0.001747187,-4.9775
0.000154,0.002038437,-4.96875
0.0001544,0.002139062,-4.975
0.0001548,0.00235625,-4.972188
0.0001552,0.00204,-4.99375
0.0001556,0.002525,-4.994688
0.000156,0.002186562,-4.981563
0.0001564,0.002624063,-4.984375
0.0001568,0.002220313,-4.994375
0.0001572,0.001890625,-4.984375
0.0001576,0.002275313,-4.979688
0.000158,0.002419375,-4.975313
0.0001584,0.001968125,-4.990625
0.0001588,0.002282188,-4.981875
0.0001592,0.0025,-4.969375
0.0001596,0.00210625,-4.980937
0.00016,0.001971875,-4.969687
0.0001604,0.002199375,-4.9775
0.0001608,0.002287813,-4.980312
0.0001612,0.002000313,-4.980625
0.0001616,0.002181563,-4.978437
0.000162,0.002389062,-4.984375
0.0001624,0.0023225,-4.993438
0.0001628,0.00191,-4.979688
0.0001632,0.002335625,-4.976875
0.0001636,0.00222625,-4.989375
0.000164,0.001940625,-4.978125
0.0001644,0.002169688,-4.968438
0.0001648,0.002066562,-4.965
0.0001652,0.002537187,-4.972813
0.0001656,0.002216875,-4.994062
0.000166,0.002325937,-4.982187
0.0001664,0.001954375,-4.975
0.0001668,0.002025625,-4.983438
0.0001672,0.001998438,-4.974688
0.0001676,0.002070625,-4.97625
0.000168,0.002340625,-4.970313
0.0001684,0.002076875,-4.978437
0.0001688,0.0022075,-4.990625
0.0001692,0.002381562,-4.987813
0.0001696,0.002368438,-4.98
0.00017,0.002233125,-4.9775
0.0001704,0.002140312,-4.970625
0.0001708,0.00232,-4.978125
0.0001712,0.001882812,-4.978125
0.0001716,0.001895625,-4.973437
0.000172,0.00198625,-4.977813
0.0001724,0.00187375,-4.972813
0.0001728,0.002286875,-4.974688
0.0001732,0.001958437,-4.99125
0.0001736,0.002102813,-4.990313
0.000174,0.001905625,-4.985312
0.0001744,0.001855313,-4.974688
0.0001748,0.001940625,-4.981875
0.0001752,0.001904688,-4.96875
0.0001756,0.00211375,-4.98125
0.000176,0.001928438,-4.974688
0.0001764,0.00212625,-4.990625
0.0001768,0.002275937,-4.989062
0.0001772,0.001795313,-4.973437
0.0001776,0.002005313,-4.97375
0.000178,0.00184375,-4.988125
0.0001784,0.001845,-4.98625
0.0001788,0.002254375,-4.9875
0.0001792,0.002229688,-4.98
0.0001796,0.001877188,-4.985
0.00018,0.001816563,-4.9775
0.0001804,0.002327813,-4.992188
0.0001808,0.002158125,-4.98125
0.0001812,0.001975313,-4.979063
0.0001816,0.002184062,-4.973437
0.000182,0.002056875,-4.973437
0.0001824,0.0020575,-4.974375
0.0001828,0.002053125,-4.981563
0.0001832,0.001667812,-4.985625
0.0001836,0.002165312,-4.980625
0.000184,0.002204375,-4.979063
0.0001844,0.002329688,-4.982812
0.0001848,0.002030625,-4.98875
0.0001852,0.002271875,-4.985625
0.0001856,0.001837187,-4.972813
0.000186,0.00213875,-4.97875
0.0001864,0.002106562,-4.98875
0.0001868,0.0020025,-4.991562
0.0001872,0.001967812,-4.968438
0.0001876,0.002044688,-4.975
0.000188,0.002008125,-4.984688
0.0001884,0.002046875,-4.985938
0.0001888,0.001821875,-4.961563
0.0001892,0.001719062,-4.983125
0.0001896,0.001962187,-4.974375
0.00019,0.0021175,-4.980312
0.0001904,0.00216,-4.963125
0.0001908,0.00176,-4.990625
0.0001912,0.001961563,-4.981875
0.0001916,0.001990937,-4.975625
0.000192,0.002208125,-4.978125
0.0001924,0.002206563,-4.998437
0.0001928,0.002005938,-4.982187
0.0001932,0.001812812,-4.980625
0.0001936,0.001655,-4.975937
0.000194,0.002078125,-4.978125
0.0001944,0.001501875,-4.977188
0.0001948,0.00194625,-4.973125
0.0001952,0.001946562,-4.971875
0.0001956,0.00171875,-4.989375
0.000196,0.001958437,-4.980312
0.0001964,0.002049375,-4.98625
0.0001968,0.001975,-4.959688
0.0001972,0.001857813,-4.981563
0.0001976,0.001387188,-4.989687
0.000198,0.002024062,-4.975313
0.0001984,0.00178625,-4.983438
0.0001988,0.001871563,-4.9725
0.0001992,0.002025,-4.966875
0.0001996,0.001930312,-4.97625
0.0002,0.001675938,-4.973437
0.0002004,-0.01030312,-4.974688
0.0002008,-0.01071969,-4.977813
0.0002012,-0.01071969,-4.963438
0.0002016,-0.01071969,-4.985
0.000202,-0.01071969,-4.975
0.0002024,-0.01071969,-4.989062
0.0002028,-0.01070812,-4.976563
0.0002032,-0.01065406,-4.973437
0.0002036,-0.01032562,-4.988438
0.000204,-0.009768438,-4.985
0.0002044,-0.009155937,-4.985312
0.0002048,-0.008735937,-4.970313
0.0002052,-0.00864375,-4.98
0.0002056,-0.008019063,-4.98375
0.000206,-0.008158125,-4.98
0.0002064,-0.00782125,-4.981563
0.0002068,-0.007642812,-4.979375
0.0002072,-0.0071375,-4.966562
0.0002076,-0.006965625,-4.966562
0.000208,-0.007025625,-4.979063
0.0002084,-0.006855625,-4.973437
0.0002088,-0.006702187,-4.972813
0.0002092,-0.006623125,-4.973125
0.0002096,-0.006559687,-4.97875
0.00021,-0.006555,-4.979063
0.0002104,-0.005815,-4.983125
0.0002108,-0.00624125,-4.980625
0.0002112,-0.006350312,-4.985938
0.0002116,-0.005765312,-5.001875
0.000212,-0.005856875,-4.985
0.0002124,-0.005580625,-4.97
0.0002128,-0.005459062,-4.982187
0.0002132,-0.005794375,-4.987813
0.0002136,-0.005760937,-4.972188
0.000214,-0.005861875,-4.98375
0.0002144,-0.00539625,-4.971875
0.0002148,-0.00547125,-4.973437
0.0002152,-0.005439375,-4.984375
0.0002156,-0.005585625,-4.975937
0.000216,-0.005734687,-4.97375
0.0002164,-0.005189687,-4.975
0.0002168,-0.005192813,-4.978437
0.0002172,-0.0050075,-4.985312
0.0002176,-0.005138125,-4.963438
0.000218,-0.00503875,-4.984375
0.0002184,-0.005019062,-4.990938
0.0002188,-0.005146875,-4.98
0.0002192,-0.005264062,-4.970625
0.0002196,-0.004830937,-4.979063
0.00022,-0.00505375,-4.98125
0.0002204,-0.00490375,-4.973125
0.0002208,-0.005389062,-4.97125
0.0002212,-0.005075625,-4.972188
0.0002216,-0.004737812,-4.983438
0.000222,-0.004714375,-4.9775
0.0002224,-0.004813437,-4.976875
0.0002228,-0.00448,-4.989062
0.0002232,-0.004886875,-4.987813
0.0002236,-0.00450375,-4.97375
0.000224,-0.0045925,-4.97
0.0002244,-0.004402812,-4.980937
0.0002248,-0.004554375,-4.98
0.0002252,-0.0046525,-4.97875
0.0002256,-0.004466875,-4.971875
0.000226,-0.004252187,-4.975625
0.0002264,-0.004850938,-4.980625
0.0002268,-0.004620312,-4.971875
0.0002272,-0.004557812,-4.980312
0.0002276,-0.004147187,-4.98375
0.000228,-0.004102187,-4.982812
0.0002284,-0.004277812,-4.976563
0.0002288,-0.004280312,-4.965938
0.0002292,-0.004429062,-4.9875
0.0002296,-0.00426625,-4.972813
0.00023,-0.004512812,-4.970625
0.0002304,-0.0043925,-4.98125
0.0002308,-0.004225625,-4.98
0.0002312,-0.004353438,-4.98625
0.0002316,-0.003995312,-4.981875
0.000232,-0.004594375,-4.969063
0.0002324,-0.00437625,-4.97
0.0002328,-0.00406375,-4.977188
0.0002332,-0.004349375,-4.971562
0.0002336,-0.004266875,-4.974062
0.000234,-0.004040625,-4.97375
0.0002344,-0.004235,-4.99375
0.0002348,-0.004182812,-4.975625
0.0002352,-0.003926563,-4.975
0.0002356,-0.004310625,-4.988438
0.000236,-0.004129375,-4.970938
0.0002364,-0.003864375,-4.99
0.0002368,-0.004216875,-4.957812
0.0002372,-0.003707187,-4.983438
0.0002376,-0.004050313,-4.989062
0.000238,-0.00396625,-4.970625
0.0002384,-0.00411875,-4.980625
0.0002388,-0.00408625,-4.975
0.0002392,-0.003899687,-4.98
0.0002396,-0.003825312,-4.978437
0.00024,-0.003569375,-4.973437
0.0002404,-0.004152188,-4.991875
0.0002408,-0.003822187,-4.982812
0.0002412,-0.00332125,-4.976563
0.0002416,-0.00376,-4.971875
0.000242,-0.00391375,-4.991875
0.0002424,-0.003930937,-4.979688
0.0002428,-0.004021875,-4.9625
0.0002432,-0.003717812,-4.955937
0.0002436,-0.003705312,-5.003125
0.000244,-0.004056875,-4.976563
0.0002444,-0.003718437,-4.972813
0.0002448,-0.003408437,-4.984063
0.0002452,-0.003525312,-4.993438
0.0002456,-0.003726875,-4.98875
0.000246,-0.003679687,-4.985
0.0002464,-0.003608125,-4.980625
0.0002468,-0.003717187,-4.969687
0.0002472,-0.00400875,-4.982187
0.0002476,-0.003652187,-4.984688
0.000248,-0.003771562,-4.976875
0.0002484,-0.003737812,-4.984375
0.0002488,-0.003439062,-4.978437
0.0002492,-0.003573437,-4.9775
0.0002496,-0.003686562,-4.9875
0.00025,-0.003656875,-4.975937
0.0002504,-0.00355625,-4.979375
0.0002508,-0.003589687,-4.979375
0.0002512,-0.003429062,-4.960938
0.0002516,-0.003780625,-4.984375
0.000252,-0.003408125,-4.965938
0.0002524,-0.003465,-4.997188
0.0002528,-0.003418125,-4.957812
0.0002532,-0.003524062,-4.9725
0.0002536,-0.003552187,-4.972813
0.000254,-0.003400937,-4.974375
0.0002544,-0.003475,-4.982187
0.0002548,-0.003449687,-4.976563
0.0002552,-0.003201562,-4.991562
0.0002556,-0.0034625,-4.979688
0.000256,-0.002974375,-4.97875
0.0002564,-0.003449375,-4.987187
0.0002568,-0.003232187,-4.985625
0.0002572,-0.003304687,-4.987187
0.0002576,-0.003490937,-4.983438
0.000258,-0.003165,-4.9725
0.0002584,-0.0035375,-4.978125
0.0002588,-0.003392812,-4.975625
0.0002592,-0.00323375,-4.970313
0.0002596,-0.00322,-4.973437
0.00026,-0.003454687,-4.975313
0.0002604,-0.003354375,-4.971562
0.0002608,-0.0034925,-4.97125
0.0002612,-0.003138125,-4.978437
0.0002616,-0.00341875,-4.9775
0.000262,-0.0030725,-4.981875
0.0002624,-0.003085,-4.981875
0.0002628,-0.003118437,-4.989062
0.0002632,-0.003250312,-4.97
0.0002636,-0.003550312,-4.989687
0.000264,-0.003330312,-4.980937
0.0002644,-0.003350312,-4.972813
0.0002648,-0.003125312,-4.980312
0.0002652,-0.003247187,-4.974375
0.0002656,-0.003481875,-4.980937
0.000266,-0.003080937,-4.974688
0.0002664,-0.003069687,-4.969687
0.0002668,-0.0030575,-4.9725
0.0002672,-0.002949062,-4.975625
0.0002676,-0.0031025,-4.981875
0.000268,-0.002914375,-4.98625
0.0002684,-0.003066875,-4.976875
0.0002688,-0.003255,-4.974375
0.0002692,-0.0028925,-4.980625
0.0002696,-0.002761562,-4.97375
0.00027,-0.0029525,-4.979063
0.0002704,-0.002912187,-4.974062
0.0002708,-0.003137812,-4.980937
0.0002712,-0.002914687,-4.979063
0.0002716,-0.003103125,-4.975
0.000272,-0.002810312,-4.973437
0.0002724,-0.00282375,-4.979688
0.0002728,-0.002792187,-4.980625
0.0002732,-0.002959062,-4.97875
0.0002736,-0.002729375,-4.968438
0.000274,-0.00303125,-4.985
0.0002744,-0.0029325,-4.981875
0.0002748,-0.00275875,-4.960938
0.0002752,-0.00254,-4.977188
0.0002756,-0.0027775,-4.979375
0.000276,-0.002846875,-4.973437
0.0002764,-0.002359687,-4.984063
0.0002768,-0.002734687,-4.98875
0.0002772,-0.002805625,-4.98625
0.0002776,-0.003142187,-4.980937
0.000278,-0.002940312,-4.970625
0.0002784,-0.00284625,-4.983125
0.0002788,-0.003035625,-4.987813
0.0002792,-0.002931562,-4.98
0.0002796,-0.002799687,-4.98375
0.00028,-0.003121875,-4.97625
0.0002804,-0.002804062,-4.970313
0.0002808,-0.002784375,-4.981875
0.0002812,-0.00276,-4.988125
0.0002816,-0.0028825,-4.976563
0.000282,-0.00276,-4.978125
0.0002824,-0.002779687,-4.9775
0.0002828,-0.002686875,-4.972813
0.0002832,-0.002709687,-4.9775
0.0002836,-0.002938125,-4.988438
0.000284,-0.002650937,-4.973125
0.0002844,-0.002519062,-4.97125
0.0002848,-0.002638437,-4.973125
0.0002852,-0.00325125,-4.978437
0.0002856,-0.002632187,-4.988438
0.000286,-0.0024425,-4.983125
0.0002864,-0.002587812,-4.963438
0.0002868,-0.002589687,-4.983125
0.0002872,-0.002585937,-4.971875
0.0002876,-0.002711562,-4.980937
0.000288,-0.002775,-4.977188
0.0002884,-0.00262875,-4.975313
0.0002888,-0.002566562,-4.969063
0.0002892,-0.002820937,-4.981563
0.0002896,-0.002370312,-4.970625
0.00029,-0.002436875,-4.982187
0.0002904,-0.00262125,-4.96625
0.0002908,-0.002356563,-4.970625
0.0002912,-0.003044062,-4.976563
0.0002916,-0.002215625,-4.987813
0.000292,-0.0022925,-4.977813
0.0002924,-0.002822187,-4.984063
0.0002928,-0.002412813,-4.967813
0.0002932,-0.00243,-4.97375
0.0002936,-0.002481875,-4.982187
0.000294,-0.002595937,-4.983125
0.0002944,-0.002546562,-4.975313
0.0002948,-0.00254,-4.98375
0.0002952,-0.002573437,-4.978125
0.0002956,-0.002522812,-4.990625
0.000296,-0.002219063,-4.977188
0.0002964,-0.00235375,-4.987813
0.0002968,-0.002722812,-4.974062
0.0002972,-0.002555625,-4.983438
0.0002976,-0.002492812,-4.966875
0.000298,-0.002409062,-4.9725
0.0002984,-0.002245313,-4.987813
0.0002988,-0.002380937,-4.9825
0.0002992,-0.002462812,-4.9775
0.0002996,-0.002579062,-4.985312
0.0003,-0.002331562,-4.98
0.0003004,-0.002573437,-4.985938
0.0003008,-0.002071562,-4.979375
0.0003012,-0.002696562,-4.980937
0.0003016,-0.00251625,-4.975
0.000302,-0.002502812,-4.977188
0.0003024,-0.002565937,-4.969063
0.0003028,-0.002292812,-4.986563
0.0003032,-0.0025925,-4.977813
0.0003036,-0.002015937,-4.98
0.000304,-0.002489375,-4.971562
0.0003044,-0.00238,-4.979688
0.0003048,-0.002473125,-4.989062
0.0003052,-0.002619062,-4.982187
0.0003056,-0.002398437,-4.968125
0.000306,-0.002297812,-4.979688
0.0003064,-0.002415312,-4.975625
0.0003068,-0.002370625,-4.973125
0.0003072,-0.002538125,-4.990938
0.0003076,-0.002235,-4.984063
0.000308,-0.002496562,-4.969063
0.0003084,-0.002220625,-4.984688
0.0003088,-0.002526875,-4.982812
0.0003092,-0.002383437,-4.973437
0.0003096,-0.002375625,-4.977813
0.00031,-0.00205125,-4.976875
0.0003104,-0.002261563,-4.974375
0.0003108,-0.002244687,-4.967813
0.0003112,-0.002360937,-4.977188
0.0003116,-0.00219875,-4.975
0.000312,-0.002450625,-4.982812
0.0003124,-0.002366562,-4.974062
0.0003128,-0.001922187,-4.98875
0.0003132,-0.00234125,-4.975625
0.0003136,-0.00195375,-4.986563
0.000314,-0.002209062,-4.978125
0.0003144,-0.002462187,-4.975313
0.0003148,-0.001580938,-4.980312
0.0003152,-0.002184687,-4.972813
0.0003156,-0.002180937,-4.99125
0.000316,-0.002178438,-4.986563
0.0003164,-0.002071562,-4.966562
0.0003168,-0.0022825,-4.980937
0.0003172,-0.002337812,-4.972813
0.0003176,-0.002389687,-4.979063
0.000318,-0.00226375,-4.97125
0.0003184,-0.00212125,-4.972188
0.0003188,-0.00235875,-4.99125
0.0003192,-0.00192125,-4.986563
0.0003196,-0.001995937,-4.974688
0.00032,-0.001945625,-4.985
0.0003204,-0.002249063,-4.9875
0.0003208,-0.002304062,-4.980937
0.0003212,-0.002161562,-4.97
0.0003216,-0.002384375,-4.97
0.000322,-0.002075625,-4.995313
0.0003224,-0.00236375,-4.983125
0.0003228,-0.002057187,-4.985312
0.0003232,-0.002033437,-4.98375
0.0003236,-0.00226375,-4.991562
0.000324,-0.00198625,-4.970938
0.0003244,-0.002031875,-4.975937
0.0003248,-0.002442812,-4.965312
0.0003252,-0.002172187,-4.970625
0.0003256,-0.0022,-4.983125
0.000326,-0.002034063,-4.991562
0.0003264,-0.002113438,-4.969063
0.0003268,-0.002224062,-4.998125
0.0003272,-0.001903125,-4.979375
0.0003276,-0.002111875,-4.9725
0.000328,-0.002135937,-4.984375
0.0003284,-0.001942188,-4.979063
0.0003288,-0.002156562,-4.989687
0.0003292,-0.002079062,-4.983125
0.0003296,-0.002227187,-4.978437
0.00033,-0.002172812,-4.99125
0.0003304,-0.00192,-4.9875
0.0003308,-0.001810937,-4.975625
0.0003312,-0.001756562,-4.974062
0.0003316,-0.001670938,-4.97625
0.000332,-0.001734063,-4.974375
0.0003324,-0.001783438,-4.974688
0.0003328,-0.002080312,-4.973437
0.0003332,-0.001932187,-4.980625
0.0003336,-0.002280312,-4.98
0.000334,-0.001803125,-4.968125
0.0003344,-0.002114062,-4.967187
0.0003348,-0.001804375,-4.972813
0.0003352,-0.001799375,-4.987813
0.0003356,-0.001936562,-4.991562
0.000336,-0.001944063,-4.967813
